<?xml version="1.0" encoding="utf-8"?>
<!-- Generator: Adobe Illustrator 16.0.0, SVG Export Plug-In . SVG Version: 6.00 Build 0)  -->
<!DOCTYPE svg PUBLIC "-//W3C//DTD SVG 1.1//EN" "http://www.w3.org/Graphics/SVG/1.1/DTD/svg11.dtd">
<svg version="1.1" id="Layer_1" xmlns="http://www.w3.org/2000/svg" xmlns:xlink="http://www.w3.org/1999/xlink" x="0px" y="0px"
	 width="28px" height="28px" viewBox="0 0 28 28" enable-background="new 0 0 28 28" xml:space="preserve">
<g>
	<path fill="#33C16C" d="M10.08,20.721v0.559c0,1.547,1.253,2.801,2.8,2.801h2.24c1.546,0,2.8-1.254,2.8-2.801v-0.559H10.08z
		 M9.52,19.6h8.96c0.309,0,0.56,0.251,0.56,0.561v1.119c0,2.166-1.755,3.921-3.92,3.921h-2.24c-2.165,0-3.92-1.755-3.92-3.921V20.16
		C8.96,19.851,9.21,19.6,9.52,19.6z"/>
	<path fill="#FFFFFF" d="M11.715,19.6L10.122,4.897L7.28,3.95L4.629,4.834L9.924,19.6H11.715z M9.521,20.721
		c-0.241,0-0.455-0.154-0.531-0.384l-5.6-15.68C3.292,4.364,3.45,4.046,3.744,3.949l3.36-1.12c0.115-0.038,0.239-0.038,0.354,0
		l3.183,1.061l3.183-1.061c0.115-0.038,0.239-0.038,0.354,0L17.36,3.89l3.183-1.061c0.115-0.038,0.24-0.038,0.354,0l3.36,1.12
		c0.293,0.098,0.451,0.415,0.354,0.708l-5.6,15.68c-0.076,0.229-0.291,0.384-0.531,0.384H9.521z M16.295,19.6h1.781l5.296-14.766
		L20.721,3.95l-2.842,0.947L16.295,19.6z M12.803,19.6h2.32l1.594-14.73L13.958,3.95L11.2,4.87L12.803,19.6z"/>
</g>
</svg>
