<?xml version="1.0" encoding="utf-8"?>
<!-- Generator: Adobe Illustrator 16.0.0, SVG Export Plug-In . SVG Version: 6.00 Build 0)  -->
<!DOCTYPE svg PUBLIC "-//W3C//DTD SVG 1.1//EN" "http://www.w3.org/Graphics/SVG/1.1/DTD/svg11.dtd">
<svg version="1.1" id="Layer_1" xmlns="http://www.w3.org/2000/svg" xmlns:xlink="http://www.w3.org/1999/xlink" x="0px" y="0px"
	 width="28px" height="28px" viewBox="0 0 28 28" enable-background="new 0 0 28 28" xml:space="preserve">
<g>
	<path fill="#33C16C" d="M8.959,19.6c-0.31,0-0.56,0.251-0.56,0.561v3.359c0,0.31,0.25,0.561,0.56,0.561h12.32
		c0.309,0,0.561-0.251,0.561-0.561V20.16c0-0.31-0.252-0.561-0.561-0.561H8.959z M8.959,18.48h12.32c0.928,0,1.68,0.752,1.68,1.68
		v3.359c0,0.928-0.752,1.681-1.68,1.681H8.959c-0.928,0-1.68-0.753-1.68-1.681V20.16C7.279,19.232,8.031,18.48,8.959,18.48z"/>
	<path fill="#8AB1BF" d="M7.584,17.262c0.306,0.598,0.855,1.016,1.5,1.162c0.052,0.012,0.102,0.031,0.147,0.057H20.16
		c1.546,0,2.8-1.254,2.8-2.801V6.72c0-1.546-1.254-2.8-2.8-2.8h-7.84c-1.546,0-2.8,1.254-2.8,2.8v2.775
		c0.455,0.269,0.841,0.68,1.114,1.24l1.964,4.027c0.136,0.277,0.02,0.613-0.258,0.748c-0.278,0.137-0.613,0.021-0.749-0.258
		l-1.964-4.026c-0.201-0.412-0.511-0.734-0.879-0.95c-0.019-0.008-0.039-0.017-0.058-0.027c-0.634-0.347-1.397-0.372-2.059-0.049
		c-0.699,0.341-1.141,0.998-1.238,1.715c-0.057,0.422,0.007,0.864,0.208,1.275l1.964,4.027C7.572,17.231,7.579,17.246,7.584,17.262z
		 M6.558,17.712l-1.964-4.026c-0.813-1.668-0.121-3.68,1.547-4.493C6.857,8.843,7.654,8.766,8.4,8.945V6.72
		c0-2.165,1.755-3.92,3.92-3.92h7.84c2.164,0,3.92,1.755,3.92,3.92v8.959c0,2.166-1.756,3.92-3.92,3.92H8.96
		c-0.149,0-0.286-0.059-0.386-0.154C7.702,19.173,6.969,18.556,6.558,17.712z"/>
</g>
</svg>
