<?xml version="1.0" encoding="utf-8"?>
<!-- Generator: Adobe Illustrator 16.0.0, SVG Export Plug-In . SVG Version: 6.00 Build 0)  -->
<!DOCTYPE svg PUBLIC "-//W3C//DTD SVG 1.1//EN" "http://www.w3.org/Graphics/SVG/1.1/DTD/svg11.dtd">
<svg version="1.1" id="Layer_1" xmlns="http://www.w3.org/2000/svg" xmlns:xlink="http://www.w3.org/1999/xlink" x="0px" y="0px"
	 width="18px" height="17.916px" viewBox="27 27.042 18 17.916" enable-background="new 27 27.042 18 17.916" xml:space="preserve">
<g>
	<path fill="#FFFFFF" d="M40.282,44.958h-9.431c-2.123,0-3.852-1.728-3.852-3.853v-5.527c0-2.124,1.729-3.853,3.852-3.853h9.431
		c2.125,0,3.853,1.729,3.853,3.853v1.182c0,0.422-0.342,0.764-0.763,0.764h-1.66c-0.246,0-0.472,0.093-0.636,0.262
		c-0.209,0.204-0.306,0.467-0.28,0.735c0.039,0.47,0.494,0.844,1.015,0.844h1.562c0.421,0,0.763,0.342,0.763,0.764v0.977
		C44.135,43.23,42.407,44.958,40.282,44.958z M30.852,33.253c-1.282,0-2.324,1.043-2.324,2.326v5.527
		c0,1.282,1.042,2.326,2.324,2.326h9.431c1.282,0,2.326-1.044,2.326-2.326v-0.214h-0.798c-1.317,0-2.43-0.981-2.535-2.234
		c-0.068-0.723,0.194-1.436,0.722-1.949c0.438-0.453,1.053-0.71,1.715-0.71h0.896v-0.419c0-1.283-1.044-2.326-2.326-2.326H30.852z"
		/>
	<path fill="#FFFFFF" d="M27.764,37.081c-0.422,0-0.764-0.342-0.764-0.763v-3.754c0-1.285,0.807-2.453,2.005-2.907l6.523-2.464
		c0.709-0.27,1.511-0.172,2.138,0.261c0.63,0.435,1.005,1.15,1.005,1.915v3.122c0,0.422-0.342,0.763-0.763,0.763
		c-0.422,0-0.764-0.341-0.764-0.763v-3.122c0-0.267-0.126-0.507-0.346-0.659c-0.217-0.15-0.483-0.184-0.73-0.089l-6.523,2.464
		c-0.618,0.234-1.018,0.815-1.018,1.479v3.754C28.527,36.739,28.186,37.081,27.764,37.081z"/>
	<path fill="#FFFFFF" d="M43.416,40.893h-1.61c-1.318,0-2.432-0.982-2.535-2.236c-0.068-0.718,0.193-1.432,0.721-1.947
		c0.441-0.454,1.056-0.711,1.715-0.711h1.71C44.316,36.03,45,36.733,45,37.6v1.692c0,0.864-0.683,1.567-1.555,1.6
		C43.436,40.893,43.426,40.893,43.416,40.893z M43.389,37.524l-1.683,0.001c-0.244,0-0.471,0.093-0.635,0.262
		c-0.209,0.204-0.307,0.467-0.28,0.733c0.039,0.472,0.494,0.846,1.015,0.846h1.589c0.046-0.005,0.079-0.035,0.079-0.074V37.6
		C43.474,37.559,43.438,37.526,43.389,37.524z"/>
	<path fill="#FFFFFF" d="M37.211,36.744H31.46c-0.421,0-0.763-0.342-0.763-0.763c0-0.422,0.342-0.764,0.763-0.764h5.751
		c0.422,0,0.764,0.342,0.764,0.764C37.975,36.402,37.633,36.744,37.211,36.744z"/>
</g>
</svg>
