<?xml version="1.0" encoding="utf-8"?>
<!-- Generator: Adobe Illustrator 16.0.0, SVG Export Plug-In . SVG Version: 6.00 Build 0)  -->
<!DOCTYPE svg PUBLIC "-//W3C//DTD SVG 1.1//EN" "http://www.w3.org/Graphics/SVG/1.1/DTD/svg11.dtd">
<svg version="1.1" id="Layer_1" xmlns="http://www.w3.org/2000/svg" xmlns:xlink="http://www.w3.org/1999/xlink" x="0px" y="0px"
	 width="28px" height="28px" viewBox="0 0 28 28" enable-background="new 0 0 28 28" xml:space="preserve">
<g>
	<path fill="#33C16C" d="M24.629,9.219l0.455,1.023c-5.367,2.39-7.782,8.68-5.393,14.047l-1.022,0.456
		C16.027,18.812,18.695,11.86,24.629,9.219z M10.665,3.041c2.114,6.141-1.149,12.833-7.291,14.948L3.01,16.93
		c5.556-1.913,8.509-7.968,6.596-13.524L10.665,3.041z"/>
	<path fill="#FFFFFF" d="M14,25.76C7.505,25.76,2.24,20.495,2.24,14C2.24,7.505,7.505,2.24,14,2.24c6.495,0,11.76,5.265,11.76,11.76
		C25.76,20.495,20.495,25.76,14,25.76z M14,24.641c5.877,0,10.641-4.764,10.641-10.641c0-5.876-4.764-10.64-10.641-10.64
		C8.124,3.36,3.36,8.124,3.36,14C3.36,19.877,8.124,24.641,14,24.641z"/>
</g>
</svg>
