<?xml version="1.0" encoding="utf-8"?>
<!-- Generator: Adobe Illustrator 16.0.0, SVG Export Plug-In . SVG Version: 6.00 Build 0)  -->
<!DOCTYPE svg PUBLIC "-//W3C//DTD SVG 1.1//EN" "http://www.w3.org/Graphics/SVG/1.1/DTD/svg11.dtd">
<svg version="1.1" id="Layer_1" xmlns="http://www.w3.org/2000/svg" xmlns:xlink="http://www.w3.org/1999/xlink" x="0px" y="0px"
	 width="11.622px" height="14.828px" viewBox="0.189 0.586 11.622 14.828" enable-background="new 0.189 0.586 11.622 14.828"
	 xml:space="preserve">
<g>
	<path d="M5.999,0.586c-3.209,0-5.811,1.18-5.811,2.636v0.571c0,1.456,2.602,2.636,5.811,2.636c3.21,0,5.812-1.18,5.812-2.636V3.222
		C11.811,1.766,9.209,0.586,5.999,0.586z"/>
	<path d="M5.999,7.72c-2.801,0-5.139-0.899-5.688-2.096c-0.08,0.174-0.122,0.354-0.122,0.54v0.571c0,1.456,2.602,2.636,5.811,2.636
		c3.21,0,5.812-1.18,5.812-2.636V6.164c0-0.186-0.043-0.366-0.123-0.54C11.139,6.821,8.801,7.72,5.999,7.72z"/>
	<path d="M5.999,10.662c-2.801,0-5.139-0.898-5.688-2.096C0.23,8.74,0.188,8.922,0.188,9.106v0.571c0,1.455,2.602,2.636,5.811,2.636
		c3.21,0,5.812-1.181,5.812-2.636V9.106c0-0.185-0.043-0.366-0.123-0.54C11.139,9.764,8.801,10.662,5.999,10.662z"/>
	<path d="M5.999,13.764c-2.801,0-5.139-0.899-5.688-2.096c-0.08,0.174-0.122,0.354-0.122,0.539v0.572
		c0,1.455,2.602,2.635,5.811,2.635c3.21,0,5.812-1.18,5.812-2.635v-0.572c0-0.185-0.043-0.365-0.123-0.539
		C11.139,12.864,8.801,13.764,5.999,13.764z"/>
</g>
</svg>
